{
  "info": {
    "author": "Stefan Hagen",
    "author_email": "stefan@hagen.link",
    "bugtrack_url": null,
    "classifiers": [
      "Development Status :: 3 - Alpha",
      "Intended Audience :: Developers",
      "License :: OSI Approved :: MIT License",
      "Programming Language :: Python :: 3.10",
      "Programming Language :: Python :: 3.8",
      "Programming Language :: Python :: 3.9"
    ],
    "description": "# cyclonedx-lint\n\nExperimental CycloneDX baseline validator.\n\n[License: MIT](https://github.com/sthagen/cyclonedx-lint/blob/default/LICENSE)\n\n[![version](https://img.shields.io/pypi/v/cyclonedx-lint.svg?style=flat)](https://pypi.python.org/pypi/cyclonedx-lint/)\n[![downloads](https://pepy.tech/badge/cyclonedx-lint/month)](https://pepy.tech/project/cyclonedx-lint)\n[![wheel](https://img.shields.io/pypi/wheel/cyclonedx-lint.svg?style=flat)](https://pypi.python.org/pypi/cyclonedx-lint/)\n[![supported-versions](https://img.shields.io/pypi/pyversions/cyclonedx-lint.svg?style=flat)](https://pypi.python.org/pypi/cyclonedx-lint/)\n[![supported-implementations](https://img.shields.io/pypi/implementation/cyclonedx-lint.svg?style=flat)](https://pypi.python.org/pypi/cyclonedx-lint/)\n\nTODO: Third party dependencies are documented in the folder [third-party](third-party/README.md).\n\n## Status\n\nExperimental.\n\n**Note**: The default branch is `default`.\n",
    "description_content_type": "text/markdown",
    "docs_url": null,
    "download_url": "",
    "downloads": {
      "last_day": -1,
      "last_month": -1,
      "last_week": -1
    },
    "dynamic": null,
    "home_page": "https://github.com/sthagen/cyclonedx-lint",
    "keywords": "baseline,cyclonedx,development,extension,software-bill-of-materials,validation",
    "license": "",
    "license_expression": null,
    "license_files": null,
    "maintainer": "Stefan Hagen",
    "maintainer_email": "stefan@hagen.link",
    "name": "cyclonedx-lint",
    "package_url": "https://pypi.org/project/cyclonedx-lint/",
    "platform": null,
    "project_url": "https://pypi.org/project/cyclonedx-lint/",
    "project_urls": {
      "Bug Tracker": "https://github.com/sthagen/cyclonedx-lint/issues",
      "Documentation": "https://sthagen.github.io/cyclonedx-lint",
      "Homepage": "https://github.com/sthagen/cyclonedx-lint",
      "Source Code": "https://github.com/sthagen/cyclonedx-lint"
    },
    "provides_extra": null,
    "release_url": "https://pypi.org/project/cyclonedx-lint/2022.7.17/",
    "requires_dist": [
      "jsonschema (>=4.7.2)",
      "typer (>=0.6.1)",
      "xmlschema (>=1.11.3)",
      "black ; extra == 'dev'",
      "coverage ; extra == 'dev'",
      "flake8 ; extra == 'dev'",
      "mypy ; extra == 'dev'",
      "pytest ; extra == 'dev'",
      "pytest-cov ; extra == 'dev'",
      "pytest-flake8 ; extra == 'dev'"
    ],
    "requires_python": ">=3.8",
    "summary": "Experimental CycloneDX baseline validator.",
    "version": "2022.7.17",
    "yanked": false,
    "yanked_reason": null
  },
  "last_serial": 14460271,
  "releases": {
    "0.0.1": [
      {
        "comment_text": "",
        "digests": {
          "blake2b_256": "e277f7197bcf273cd328ac6a7c5af610f2378c92670bc3e37ca2b854f5d7eebe",
          "md5": "370ded476be5bd3e42a28a1445726ec1",
          "sha256": "f7f120c7cf7a589db542bde469a86fe3b084aec898822eb0cfd95c2fb88ee8b7"
        },
        "downloads": -1,
        "filename": "cyclonedx-lint-0.0.1.tar.gz",
        "has_sig": false,
        "md5_digest": "370ded476be5bd3e42a28a1445726ec1",
        "packagetype": "sdist",
        "python_version": "source",
        "requires_python": null,
        "size": 2644,
        "upload_time": "2021-03-02T21:48:11",
        "upload_time_iso_8601": "2021-03-02T21:48:11.194568Z",
        "url": "https://files.pythonhosted.org/packages/e2/77/f7197bcf273cd328ac6a7c5af610f2378c92670bc3e37ca2b854f5d7eebe/cyclonedx-lint-0.0.1.tar.gz",
        "yanked": false,
        "yanked_reason": null
      }
    ],
    "2022.7.17": [
      {
        "comment_text": "",
        "digests": {
          "blake2b_256": "a0569db966c71e7765c2d3b05ef224dd081aa394ef8d1d170bdc8a2e32042148",
          "md5": "9bdab130f8439d2bfd85586da38dc3e6",
          "sha256": "c8c238e38fcb03bfb1f2a50eda5192d32bf53aee004a9b0a7b9ec179fed9d83b"
        },
        "downloads": -1,
        "filename": "cyclonedx_lint-2022.7.17-py2.py3-none-any.whl",
        "has_sig": false,
        "md5_digest": "9bdab130f8439d2bfd85586da38dc3e6",
        "packagetype": "bdist_wheel",
        "python_version": "py2.py3",
        "requires_python": ">=3.8",
        "size": 4837,
        "upload_time": "2022-07-17T13:05:40",
        "upload_time_iso_8601": "2022-07-17T13:05:40.628203Z",
        "url": "https://files.pythonhosted.org/packages/a0/56/9db966c71e7765c2d3b05ef224dd081aa394ef8d1d170bdc8a2e32042148/cyclonedx_lint-2022.7.17-py2.py3-none-any.whl",
        "yanked": false,
        "yanked_reason": null
      },
      {
        "comment_text": "",
        "digests": {
          "blake2b_256": "115d27f45a28f3a792b6c8a72a8a46d4dc9e010806001e890fb5ff9ebc999e91",
          "md5": "de5befea0ac15512a3374a32d5f511c8",
          "sha256": "a4039c20a3907660e3ef882d8b5466789cbd17ecfc2c1448ffa72480351539da"
        },
        "downloads": -1,
        "filename": "cyclonedx-lint-2022.7.17.tar.gz",
        "has_sig": false,
        "md5_digest": "de5befea0ac15512a3374a32d5f511c8",
        "packagetype": "sdist",
        "python_version": "source",
        "requires_python": ">=3.8",
        "size": 9575,
        "upload_time": "2022-07-17T13:05:42",
        "upload_time_iso_8601": "2022-07-17T13:05:42.529555Z",
        "url": "https://files.pythonhosted.org/packages/11/5d/27f45a28f3a792b6c8a72a8a46d4dc9e010806001e890fb5ff9ebc999e91/cyclonedx-lint-2022.7.17.tar.gz",
        "yanked": false,
        "yanked_reason": null
      }
    ]
  },
  "urls": [
    {
      "comment_text": "",
      "digests": {
        "blake2b_256": "a0569db966c71e7765c2d3b05ef224dd081aa394ef8d1d170bdc8a2e32042148",
        "md5": "9bdab130f8439d2bfd85586da38dc3e6",
        "sha256": "c8c238e38fcb03bfb1f2a50eda5192d32bf53aee004a9b0a7b9ec179fed9d83b"
      },
      "downloads": -1,
      "filename": "cyclonedx_lint-2022.7.17-py2.py3-none-any.whl",
      "has_sig": false,
      "md5_digest": "9bdab130f8439d2bfd85586da38dc3e6",
      "packagetype": "bdist_wheel",
      "python_version": "py2.py3",
      "requires_python": ">=3.8",
      "size": 4837,
      "upload_time": "2022-07-17T13:05:40",
      "upload_time_iso_8601": "2022-07-17T13:05:40.628203Z",
      "url": "https://files.pythonhosted.org/packages/a0/56/9db966c71e7765c2d3b05ef224dd081aa394ef8d1d170bdc8a2e32042148/cyclonedx_lint-2022.7.17-py2.py3-none-any.whl",
      "yanked": false,
      "yanked_reason": null
    },
    {
      "comment_text": "",
      "digests": {
        "blake2b_256": "115d27f45a28f3a792b6c8a72a8a46d4dc9e010806001e890fb5ff9ebc999e91",
        "md5": "de5befea0ac15512a3374a32d5f511c8",
        "sha256": "a4039c20a3907660e3ef882d8b5466789cbd17ecfc2c1448ffa72480351539da"
      },
      "downloads": -1,
      "filename": "cyclonedx-lint-2022.7.17.tar.gz",
      "has_sig": false,
      "md5_digest": "de5befea0ac15512a3374a32d5f511c8",
      "packagetype": "sdist",
      "python_version": "source",
      "requires_python": ">=3.8",
      "size": 9575,
      "upload_time": "2022-07-17T13:05:42",
      "upload_time_iso_8601": "2022-07-17T13:05:42.529555Z",
      "url": "https://files.pythonhosted.org/packages/11/5d/27f45a28f3a792b6c8a72a8a46d4dc9e010806001e890fb5ff9ebc999e91/cyclonedx-lint-2022.7.17.tar.gz",
      "yanked": false,
      "yanked_reason": null
    }
  ],
  "vulnerabilities": []
}